@startuml
!include https://raw.githubusercontent.com/adrianvlupu/C4-PlantUML/latest/C4_Component.puml

LAYOUT_WITH_LEGEND()

Container(cdb, "Exchange DB", "mysql")
Container(cledger, "Ledger", "ledger")
Container(capi, "Exchange Service", "exchange", "Provides a backend for the frontend and also the public api.")

Container_Boundary(cbengine, "Exchange API"){
}

@enduml
