@startuml
!include https://raw.githubusercontent.com/adrianvlupu/C4-PlantUML/latest/C4_Component.puml

LAYOUT_WITH_LEGEND()

Container(cledger, "Ledger", "Physical Service")
Container(cmessenge, "Messenge Sender", "Logical service")
Container(cdatalake, "DataLake", "Physical Service")
Container(cdb, "Exchange DB", "mysql")
Container(capi, "Exchange API", "Physical Service", "Provides a backend for our frontend (Web Application) and also the public api.")

Container_Boundary(cbengine, "Trading Engine"){
}


@enduml
