@startuml
!include https://raw.githubusercontent.com/adrianvlupu/C4-PlantUML/latest/C4_Context.puml

LAYOUT_WITH_LEGEND()

Person(ptrader, "Trader", "A person that uses our web interface trade on our exchange")
Person(pbot, "Bot", "A program that trades on our exchange via our public API")

System(sexchange, "Exchange", "Luno trading platform.")
System(smaker, "Maker", "Maker bot aims to create liquidity.")
System(swallet, "Wallet", "Keeps track of the user funds")
System(susers, "Users", "Provides user data")
System(smessenger, "Messenger", "System responsible for sending user notification")

System_Ext(esotherexchange, "3rd Party Exchange", "Other exchanges")

Rel(ptrader, sexchange, "Posts & Cancels Orders Manually")
Rel(pbot, sexchange, "Posts & Cancels Orders Automatically")
Rel(sexchange, swallet, "Manage Wallets & Funds")
Rel(smaker, esotherexchange, "Gets rates from liquid markets")
Rel(smaker, sexchange, "Creates liquidity")
Rel(susers, sexchange, "Get user verification data")
Rel(sexchange, smessenger, "Send notifications")
Rel(smessenger, ptrader, "Send notifications via the appropriate channel")
@enduml
